ETC5523 Assignment 3
…
Based on the responses I received, only two people out of 13 correctly identified the true plot. The p-value is approximately equal to 0.1354, this is larger than the alpha of 0.05, therefore it can be concluded that the data adheres to the null distribution, and we fail to reject the null hypothesis that two brands are significantly different, based on the results of the lineup analysis using boxplot.

4.3 c.

The power of each lineup is calculated, as well as the mean power and standard deviation for each visual statistic

lineup_power <- vis_inf %>%
  group_by(lineup_id, vis) %>%
  summarise(power = mean(detected == "yes")) %>% 
  ungroup()

lineup_power

## # A tibble: 180 x 3
##    lineup_id vis     power
##    <chr>     <chr>   <dbl>
##  1 L001      violin  0.7  
##  2 L002      boxplot 0.475
##  3 L003      dotplot 0.642
##  4 L004      violin  0.608
##  5 L005      boxplot 0.517
##  6 L006      dotplot 0.658
##  7 L007      violin  0.6  
##  8 L008      boxplot 0.542
##  9 L009      dotplot 0.533
## 10 L010      violin  0.567
## # ... with 170 more rows
…
